2 Creating linked data | Creating Linked Open Statistical Data
…
df
#> # A tibble: 2 × 8
#>   geography `2015` `2016` `2017` `2018` `2019` `2020` `2021`
#>   <chr>      <dbl>  <dbl>  <dbl>  <dbl>  <dbl>  <dbl>  <dbl>
#> 1 W92000001 -0.626 -0.836  0.330  0.487  0.576  1.51  -0.621
#> 2 E92000001  0.184  1.60  -0.820  0.738 -0.305  0.390 -2.21

df %>% pivot_longer(
    cols = !geography,
    names_to = "year",
    names_transform = list(year = as.numeric)
)
#> # A tibble: 14 × 3
#>   geography  year  value
#>   <chr>     <dbl>  <dbl>
#> 1 W92000001  2015 -0.626
#> 2 W92000001  2016 -0.836
#> 3 W92000001  2017  0.330
#> 4 W92000001  2018  0.487
#> 5 W92000001  2019  0.576
#> 6 W92000001  2020  1.51 
#> # … with 8 more rows
…
df
#> # A tibble: 4 × 4
#>    year geography population     gdp
#>   <int> <chr>          <dbl>   <dbl>
#> 1  2020 W92000001     993735 1003295
#> 2  2020 E92000001    1001836  991795
#> 3  2021 W92000001     991644 1004874
#> 4  2021 E92000001    1015953 1007383

df %>% pivot_longer(
    cols = c("population", "gdp"),
    names_to = "measure_type"
)
#> # A tibble: 8 × 4
#>    year geography measure_type   value
#>   <int> <chr>     <chr>          <dbl>
#> 1  2020 W92000001 population    993735
#> 2  2020 W92000001 gdp          1003295
#> 3  2020 E92000001 population   1001836
#> 4  2020 E92000001 gdp           991795
#> 5  2021 W92000001 population    991644
#> 6  2021 W92000001 gdp          1004874
#> # … with 2 more rows
…
tidy_df
#> # A tibble: 8 × 5
#>   financial_year transaction_type      transaction_price_ba… transactions marker
#>   <chr>          <chr>                 <chr>                        <dbl> <chr> 
#> 1 2019-20        All liable transacti… Under £250k                 290200 NA    
#> 2 2019-20        HRAD transactions     Under £250k                 135400 NA    
#> 3 2019-20        All liable transacti… Between £250k and £5…       279600 NA    
#> 4 2019-20        HRAD transactions     Between £250k and £5…        56100 NA    
#> 5 2020-21        All liable transacti… Under £250k                 157100 [p]   
#> 6 2020-21        HRAD transactions     Under £250k                 117600 [p]   
#> # … with 2 more rows
…
